{
	"id": "4f43cc5c-d55a-49d4-a25a-6e0cda21bf21",
	"name": "absensi-mitramas",
	"values": [
		{
			"key": "url",
			"value": "20.24.15.143:5000",
			"type": "default",
			"enabled": true
		},
		{
			"key": "token",
			"value": "",
			"type": "default",
			"enabled": true
		}
	],
	"_postman_variable_scope": "environment",
	"_postman_exported_at": "2022-09-03T22:48:46.109Z",
	"_postman_exported_using": "Postman/9.30.0"
}